%YAML 1.1
%TAG !u! tag:unity3d.com,2011:
--- !u!114 &11400000
MonoBehaviour:
  m_ObjectHideFlags: 0
  m_CorrespondingSourceObject: {fileID: 0}
  m_PrefabInstance: {fileID: 0}
  m_PrefabAsset: {fileID: 0}
  m_GameObject: {fileID: 0}
  m_Enabled: 1
  m_EditorHideFlags: 0
  m_Script: {fileID: 11500000, guid: 95e66c6366d904e98bc83428217d4fd7, type: 3}
  m_Name: CapsuleMovement
  m_EditorClassIdentifier: 
  _data:
    _json: '{"graph":{"variables":{"Kind":"Flow","collection":{"$content":[],"$version":"A"},"$version":"A"},"controlInputDefinitions":[],"controlOutputDefinitions":[],"valueInputDefinitions":[],"valueOutputDefinitions":[],"title":null,"summary":null,"pan":{"x":-7.313559,"y":84.99641},"zoom":0.8666667,"elements":[{"coroutine":false,"defaultValues":{},"position":{"x":-452.0,"y":-104.0},"guid":"1e849fbc-a18f-4e9d-a7ae-532c4960e070","$version":"A","$type":"Unity.VisualScripting.Update","$id":"9"},{"chainable":false,"member":{"name":"ClampMagnitude","parameterTypes":["UnityEngine.Vector3","System.Single"],"targetType":"UnityEngine.Vector3","targetTypeName":"UnityEngine.Vector3","$version":"A"},"defaultValues":{"%vector":{"x":0.0,"y":0.0,"z":0.0,"$type":"UnityEngine.Vector3"},"%maxLength":{"$content":1.0,"$type":"System.Single"}},"position":{"x":-80.0,"y":-145.0},"guid":"5c244d89-fcbb-4bdb-a959-c96d7e3e81f7","$version":"A","$type":"Unity.VisualScripting.InvokeMember","$id":"11"},{"chainable":false,"member":{"name":"Translate","parameterTypes":["UnityEngine.Vector3"],"targetType":"UnityEngine.Transform","targetTypeName":"UnityEngine.Transform","$version":"A"},"defaultValues":{"target":null,"%translation":{"x":0.0,"y":0.0,"z":0.0,"$type":"UnityEngine.Vector3"}},"position":{"x":362.0,"y":-117.0},"guid":"d189858c-a05d-4101-97fc-d1218b7b04b6","$version":"A","$type":"Unity.VisualScripting.InvokeMember","$id":"14"},{"specifyFallback":false,"kind":"Object","defaultValues":{"name":{"$content":"MoveSpeed","$type":"System.String"},"object":null},"position":{"x":-223.0,"y":55.0},"guid":"b8cb4531-565f-4db6-8b71-c9313aaf29be","$version":"A","$type":"Unity.VisualScripting.GetVariable","$id":"17"},{"member":{"name":"deltaTime","parameterTypes":null,"targetType":"UnityEngine.Time","targetTypeName":"UnityEngine.Time","$version":"A"},"defaultValues":{},"position":{"x":-256.0,"y":235.0},"guid":"96cdab88-e7f4-4ee6-9401-41173b5557c7","$version":"A","$type":"Unity.VisualScripting.GetMember","$id":"19"},{"defaultValues":{"b":{"$content":1.0,"$type":"System.Single"}},"position":{"x":38.0,"y":113.0},"guid":"a4a35b84-c382-4a0e-81d7-4ac5c9c6fee6","$version":"A","$type":"Unity.VisualScripting.ScalarMultiply","$id":"22"},{"defaultValues":{},"position":{"x":213.0,"y":39.0},"guid":"94c2cf63-4c85-4d94-951e-c44dff018e4a","$version":"A","$type":"Unity.VisualScripting.GenericMultiply","$id":"24"},{"specifyFallback":false,"kind":"Object","defaultValues":{"name":{"$content":"MoveAxis","$type":"System.String"},"object":null},"position":{"x":-464.0,"y":45.0},"guid":"9ac1e659-a8b7-46f0-9413-ddf8c49437e4","$version":"A","$type":"Unity.VisualScripting.GetVariable","$id":"26"},{"sourceUnit":{"$ref":"9"},"sourceKey":"trigger","destinationUnit":{"$ref":"11"},"destinationKey":"enter","guid":"124e5587-8ef4-402f-b16d-269bfb90a033","$type":"Unity.VisualScripting.ControlConnection"},{"sourceUnit":{"$ref":"11"},"sourceKey":"exit","destinationUnit":{"$ref":"14"},"destinationKey":"enter","guid":"022ae90d-22ef-4b1f-92c5-e5ca768fc9b1","$type":"Unity.VisualScripting.ControlConnection"},{"sourceUnit":{"$ref":"24"},"sourceKey":"product","destinationUnit":{"$ref":"14"},"destinationKey":"%translation","guid":"2afa07fd-26a0-40f1-939b-1086f5382c3e","$type":"Unity.VisualScripting.ValueConnection"},{"sourceUnit":{"$ref":"11"},"sourceKey":"result","destinationUnit":{"$ref":"24"},"destinationKey":"a","guid":"750d6c43-51da-447c-9c50-13f698802b7d","$type":"Unity.VisualScripting.ValueConnection"},{"sourceUnit":{"$ref":"17"},"sourceKey":"value","destinationUnit":{"$ref":"22"},"destinationKey":"a","guid":"df4f0198-9344-4752-8e26-e9500e7798f6","$type":"Unity.VisualScripting.ValueConnection"},{"sourceUnit":{"$ref":"19"},"sourceKey":"value","destinationUnit":{"$ref":"22"},"destinationKey":"b","guid":"6c320fab-80d6-4522-981b-01450963ee90","$type":"Unity.VisualScripting.ValueConnection"},{"sourceUnit":{"$ref":"22"},"sourceKey":"product","destinationUnit":{"$ref":"24"},"destinationKey":"b","guid":"d7a6b84a-39aa-46ec-9a40-9b8dc1ba8cf7","$type":"Unity.VisualScripting.ValueConnection"},{"sourceUnit":{"$ref":"26"},"sourceKey":"value","destinationUnit":{"$ref":"11"},"destinationKey":"%vector","guid":"7b6b9a10-a3c4-466c-bd86-0d5186cb39ce","$type":"Unity.VisualScripting.ValueConnection"}],"$version":"A"}}'
    _objectReferences: []
